state,x,y
Alabama,209,-112
Alaska,-311,-266
Arizona,-302,-67
Arkansas,87,-66
California,-455,12
Colorado,-167,41
Connecticut,486,118
Delaware,459,60
Florida,339,-221
Georgia,292,-130
Hawaii,-462,-215
Idaho,-312,162
Illinois,143,52
Indiana,205,42
Iowa,60,104
Kansas,-23,10
Kentucky,227,-5
Louisiana,112,-210
Maine,494,262
Maryland,448,44
Massachusetts,493,161
Michigan,227,146
Minnesota,46,223
Mississippi,149,-163
Missouri,90,-15
Montana,-214,237
Nebraska,-47,89
Nevada,-379,77
New Hampshire,499,191
New Jersey,466,92
New Mexico,-182,-90
New York,381,161
North Carolina,375,-26
North Dakota,-71,242
Ohio,271,81
Oklahoma,-6,-59
Oregon,-419,214
Pennsylvania,360,111
Rhode Island,503,142
South Carolina,368,-90
South Dakota,-49,163
Tennessee,205,-48
Texas,-38,-173
Utah,-273,51
Vermont,405,221
Virginia,373,15
Washington,-399,282
West Virginia,316,43
Wisconsin,127,173
Wyoming,-198,139
